…
  mutate(
    prop_test = map2(.x = unsolved, .y = total, ~prop.test(x = .x, n = .y))
    ) %>% 
  mutate(
    prop_test = map(prop_test, broom::tidy)
  ) %>% 
  unnest(prop_test) %>% 
  select(city_state:estimate, conf.low, conf.high)
```

    ## # A tibble: 50 × 7
    ## # Groups:   city_state [50]
    ##    city_state      solved unsolved total estimate conf.low conf.high
    ##    <chr>            <int>    <int> <int>    <dbl>    <dbl>     <dbl>
    ##  1 Albuquerque, NM    232      146   378    0.386    0.337     0.438
    ##  2 Atlanta, GA        600      373   973    0.383    0.353     0.415
    ##  3 Baltimore, MD     1002     1825  2827    0.646    0.628     0.663
    ##  4 Baton Rouge, LA    228      196   424    0.462    0.414     0.511
    ##  5 Birmingham, AL     453      347   800    0.434    0.399     0.469
    ##  6 Boston, MA         304      310   614    0.505    0.465     0.545
    ##  7 Buffalo, NY        202      319   521    0.612    0.569     0.654
    ##  8 Charlotte, NC      481      206   687    0.300    0.266     0.336
    ##  9 Chicago, IL       1462     4073  5535    0.736    0.724     0.747
    ## 10 Cincinnati, OH     385      309   694    0.445    0.408     0.483
    ## # … with 40 more rows
